{
    "DA Warner": {
        "2009": 123.485,
        "2010": 149.206,
        "2011": 117.818,
        "2012": 165.161,
        "2013": 126.543,
        "2014": 142.318,
        "2015": 157.865,
        "2016": 151.971,
        "2017": 142.762
    },
    "S Dhawan": {
        "2008": 115.254,
        "2009": 88.889,
        "2010": 113.018,
        "2011": 129.45,
        "2012": 129.909,
        "2013": 122.925,
        "2014": 118.927,
        "2015": 123.86,
        "2016": 117.33,
        "2017": 127.733
    },
    "MC Henriques": {
        "2009": 95,
        "2010": 220,
        "2013": 133.065,
        "2014": 64.286,
        "2015": 136.667,
        "2016": 115.924,
        "2017": 136.453
    },
    "Yuvraj Singh": {
        "2008": 162.5,
        "2009": 115.646,
        "2010": 129.5,
        "2011": 131.418,
        "2013": 125.263,
        "2014": 137.226,
        "2015": 118.66,
        "2016": 131.844,
        "2017": 143.182
    },
    "DJ Hooda": {
        "2015": 158.947,
        "2016": 121.008,
        "2017": 150
    },
    "BCJ Cutting": {
        "2014": 133.333,
        "2016": 191.176,
        "2017": 196.154
    },
    "CH Gayle": {
        "2009": 124.324,
        "2010": 159.563,
        "2011": 183.686,
        "2012": 162.528,
        "2013": 158.59,
        "2014": 106.522,
        "2015": 148.338,
        "2016": 151.333,
        "2017": 123.457
    },
    "Mandeep Singh": {
        "2010": 36.364,
        "2011": 114.634,
        "2012": 126.686,
        "2013": 116.592,
        "2014": 96,
        "2015": 157,
        "2017": 106.215
    },
    "TM Head": {
        "2016": 138.462,
        "2017": 139.815
    },
    "KM Jadhav": {
        "2010": 135.714,
        "2011": 78.261,
        "2013": 123.577,
        "2014": 150.505,
        "2015": 135,
        "2016": 135.484,
        "2017": 145.902
    },
    "SR Watson": {
        "2008": 153.746,
        "2010": 163.717,
        "2011": 130.952,
        "2012": 151.786,
        "2013": 143.651,
        "2014": 124.242,
        "2015": 135.019,
        "2016": 133.582,
        "2017": 91.026
    },
    "Sachin Baby": {
        "2013": 42.857,
        "2016": 154.545,
        "2017": 100
    },
    "STR Binny": {
        "2010": 160,
        "2011": 119.355,
        "2012": 134.328,
        "2013": 147.236,
        "2014": 101.653,
        "2015": 113.846,
        "2016": 161.538,
        "2017": 102.632
    },
    "S Aravind": {
        "2011": 162.5,
        "2012": 175,
        "2015": 0,
        "2017": 80
    },
    "YS Chahal": {
        "2014": 100,
        "2015": 100,
        "2017": 50
    },
    "TS Mills": {
        "2017": 72.727
    },
    "A Choudhary": {
        "2017": 125
    },
    "PA Patel": {
        "2008": 102.373,
        "2009": 112.698,
        "2010": 91.139,
        "2011": 110.989,
        "2012": 118.293,
        "2013": 115.294,
        "2014": 110.811,
        "2015": 137.805,
        "2016": 117.219,
        "2017": 134.812
    },
    "JC Buttler": {
        "2016": 139.344,
        "2017": 152.514
    },
    "RG Sharma": {
        "2008": 149.63,
        "2009": 115.655,
        "2010": 134.667,
        "2011": 125.253,
        "2012": 126.979,
        "2013": 131.863,
        "2014": 129.139,
        "2015": 144.745,
        "2016": 133.607,
        "2017": 121.978
    },
    "N Rana": {
        "2016": 140.541,
        "2017": 126.616
    },
    "AT Rayudu": {
        "2010": 145.902,
        "2011": 113.181,
        "2012": 132.143,
        "2013": 115.721,
        "2014": 126.224,
        "2015": 146.354,
        "2016": 120.578,
        "2017": 116.667
    },
    "KH Pandya": {
        "2016": 191.129,
        "2017": 135.754
    },
    "KA Pollard": {
        "2010": 186.986,
        "2011": 110.606,
        "2012": 139.241,
        "2013": 151.079,
        "2014": 135.149,
        "2015": 164.314,
        "2016": 144.444,
        "2017": 141.577
    },
    "HH Pandya": {
        "2015": 186.667,
        "2016": 69.841,
        "2017": 157.233
    },
    "TG Southee": {
        "2014": 100,
        "2015": 144.444,
        "2016": 166.667,
        "2017": 233.333
    },
    "AM Rahane": {
        "2008": 23.529,
        "2009": 119.008,
        "2011": 122.449,
        "2012": 129.33,
        "2013": 106.55,
        "2014": 116.495,
        "2015": 131.068,
        "2016": 126.984,
        "2017": 118.266
    },
    "MA Agarwal": {
        "2011": 120.513,
        "2012": 143.312,
        "2013": 108.065,
        "2014": 126.374,
        "2015": 121.023,
        "2016": 108,
        "2017": 96.296
    },
    "SPD Smith": {
        "2012": 138.168,
        "2013": 120.455,
        "2014": 135.714,
        "2015": 135.455,
        "2016": 154.286,
        "2017": 121.964
    },
    "BA Stokes": {
        "2017": 142.986
    },
    "MS Dhoni": {
        "2008": 133.548,
        "2009": 127.203,
        "2010": 136.667,
        "2011": 160,
        "2012": 129.818,
        "2013": 164.643,
        "2014": 150.202,
        "2015": 121.967,
        "2016": 135.238,
        "2017": 116
    },
    "JJ Roy": {
        "2017": 147.5
    },
    "BB McCullum": {
        "2008": 206.593,
        "2009": 121.186,
        "2010": 104.587,
        "2011": 131.25,
        "2012": 102.12,
        "2013": 85.714,
        "2014": 121.622,
        "2015": 157.971,
        "2016": 135.115,
        "2017": 145.455
    },
    "SK Raina": {
        "2008": 143.197,
        "2009": 141.83,
        "2010": 145.055,
        "2011": 135.604,
        "2012": 136.111,
        "2013": 150.549,
        "2014": 146.499,
        "2015": 123.432,
        "2016": 127.885,
        "2017": 145.395
    },
    "AJ Finch": {
        "2010": 100,
        "2011": 102.174,
        "2012": 107.843,
        "2013": 136.119,
        "2014": 118.391,
        "2015": 69.697,
        "2016": 132.323,
        "2017": 164.835
    },
    "KD Karthik": {
        "2008": 135.514,
        "2009": 132.719,
        "2010": 117.797,
        "2011": 128.182,
        "2012": 112.264,
        "2013": 124.694,
        "2014": 125.969,
        "2015": 120.513,
        "2016": 125.94,
        "2017": 139.922
    },
    "G Gambhir": {
        "2008": 141.27,
        "2009": 103.623,
        "2010": 127.65,
        "2011": 120.382,
        "2012": 143.552,
        "2013": 118.713,
        "2014": 115.517,
        "2015": 117.626,
        "2016": 121.898,
        "2017": 128.021
    },
    "CA Lynn": {
        "2012": 66.667,
        "2014": 118.367,
        "2016": 113.636,
        "2017": 183.23
    },
    "MK Tiwary": {
        "2008": 122.353,
        "2009": 69.231,
        "2010": 128.108,
        "2011": 111.491,
        "2012": 105.691,
        "2013": 104.286,
        "2014": 128.814,
        "2015": 101.786,
        "2017": 137.872
    },
    "DT Christian": {
        "2011": 121.019,
        "2012": 122.881,
        "2013": 40,
        "2017": 161.224
    },
    "HM Amla": {
        "2016": 131.933,
        "2017": 146.341
    },
    "M Vohra": {
        "2013": 137.607,
        "2014": 139.655,
        "2015": 101.235,
        "2016": 122.901,
        "2017": 144.025
    },
    "WP Saha": {
        "2008": 133.613,
        "2009": 175.61,
        "2010": 126.415,
        "2011": 107.937,
        "2012": 42.857,
        "2013": 125,
        "2014": 145.382,
        "2015": 126.396,
        "2016": 127.358,
        "2017": 125.806
    },
    "AR Patel": {
        "2014": 103.333,
        "2015": 118.391,
        "2016": 144.156,
        "2017": 140.123
    },
    "GJ Maxwell": {
        "2012": 54.545,
        "2013": 133.333,
        "2014": 189.691,
        "2015": 129.204,
        "2016": 144.355,
        "2017": 174.157
    },
    "DA Miller": {
        "2012": 130.667,
        "2013": 165.217,
        "2014": 149.164,
        "2015": 133.708,
        "2016": 123.846,
        "2017": 106.41
    },
    "Vishnu Vinod": {
        "2017": 73.077
    },
    "Iqbal Abdulla": {
        "2008": 50,
        "2010": 0,
        "2011": 125,
        "2012": 66.667,
        "2013": 57.143,
        "2015": 117.647,
        "2016": 142.308,
        "2017": 71.429
    },
    "P Negi": {
        "2012": 124.138,
        "2015": 161.111,
        "2016": 96.61,
        "2017": 129.73
    },
    "AP Tare": {
        "2010": 138.889,
        "2013": 146.429,
        "2014": 129.897,
        "2015": 82.353,
        "2016": 53.333,
        "2017": 78.261
    },
    "SW Billings": {
        "2016": 139.683,
        "2017": 133.981
    },
    "KK Nair": {
        "2013": 75,
        "2014": 142.241,
        "2015": 124.828,
        "2016": 121.017,
        "2017": 124.336
    },
    "SV Samson": {
        "2013": 115.73,
        "2014": 124.176,
        "2015": 125.926,
        "2016": 112.791,
        "2017": 141.392
    },
    "RR Pant": {
        "2016": 130.263,
        "2017": 166.364
    },
    "CH Morris": {
        "2013": 87.5,
        "2015": 168.889,
        "2016": 178.899,
        "2017": 163.83
    },
    "CR Brathwaite": {
        "2016": 218.421,
        "2017": 80
    },
    "PJ Cummins": {
        "2015": 0,
        "2017": 145.283
    },
    "A Mishra": {
        "2008": 88.095,
        "2009": 130,
        "2010": 78,
        "2011": 138.776,
        "2012": 80,
        "2013": 93.684,
        "2014": 57.143,
        "2015": 66.667,
        "2016": 28.571,
        "2017": 94.231
    },
    "S Nadeem": {
        "2011": 0,
        "2012": 0,
        "2013": 51.852,
        "2014": 36.842,
        "2015": 28.571,
        "2016": 20,
        "2017": 22.222
    },
    "Z Khan": {
        "2008": 80.952,
        "2009": 72.727,
        "2010": 184.615,
        "2011": 87.5,
        "2012": 70.588,
        "2014": 114.286,
        "2016": 46.154,
        "2017": 30.769
    },
    "DR Smith": {
        "2008": 112.5,
        "2009": 164.122,
        "2010": 88,
        "2012": 161.856,
        "2013": 122.941,
        "2014": 136.386,
        "2015": 120.544,
        "2016": 147.273,
        "2017": 153.205
    },
    "DS Kulkarni": {
        "2008": 12.5,
        "2009": 52.941,
        "2011": 50,
        "2012": 200,
        "2014": 140,
        "2015": 36.364,
        "2016": 168.75,
        "2017": 50
    },
    "P Kumar": {
        "2008": 114.286,
        "2009": 141.304,
        "2010": 50,
        "2011": 87.097,
        "2012": 120.69,
        "2013": 123.684,
        "2014": 50,
        "2015": 68,
        "2016": 92.308,
        "2017": 88.889
    },
    "Basil Thampi": {
        "2017": 100
    },
    "RV Uthappa": {
        "2008": 116.788,
        "2009": 102.941,
        "2010": 171.56,
        "2011": 128.78,
        "2012": 118.421,
        "2013": 117.935,
        "2014": 138.075,
        "2015": 131.408,
        "2016": 136.806,
        "2017": 165.106
    },
    "MK Pandey": {
        "2008": 33.333,
        "2009": 143.59,
        "2010": 110.667,
        "2011": 108.37,
        "2012": 130,
        "2013": 99.27,
        "2014": 119.242,
        "2015": 122.283,
        "2016": 135.519,
        "2017": 129.412
    },
    "YK Pathan": {
        "2008": 182.008,
        "2009": 139.572,
        "2010": 166.5,
        "2011": 141.5,
        "2012": 116.867,
        "2013": 138.912,
        "2014": 162.424,
        "2015": 136.245,
        "2016": 145.565,
        "2017": 124.348
    },
    "SA Yadav": {
        "2012": 0,
        "2014": 142.609,
        "2015": 138.938,
        "2016": 129.078,
        "2017": 119.318
    },
    "CR Woakes": {
        "2017": 97.872
    },
    "SP Narine": {
        "2012": 128.571,
        "2013": 110.526,
        "2014": 71.429,
        "2015": 0,
        "2016": 53.846,
        "2017": 172.308
    },
    "Harbhajan Singh": {
        "2008": 176.471,
        "2009": 158.491,
        "2010": 175,
        "2011": 145.07,
        "2012": 135,
        "2013": 146.835,
        "2014": 112,
        "2015": 162.5,
        "2016": 109.524,
        "2017": 100
    },
    "AB de Villiers": {
        "2008": 96.939,
        "2009": 131.356,
        "2010": 93.277,
        "2011": 128.926,
        "2012": 161.929,
        "2013": 167.265,
        "2014": 159.274,
        "2015": 176.289,
        "2016": 169.63,
        "2017": 132.515
    },
    "CJ Anderson": {
        "2014": 146.409,
        "2015": 118.75,
        "2017": 116.393
    },
    "F du Plessis": {
        "2012": 131.353,
        "2014": 128.936,
        "2015": 125,
        "2016": 127.16,
        "2017": 114.286
    },
    "RA Tripathi": {
        "2017": 146.442
    },
    "R Bhatia": {
        "2008": 121.429,
        "2009": 44.444,
        "2010": 141.176,
        "2011": 113.636,
        "2012": 125,
        "2013": 123.75,
        "2014": 126.415,
        "2015": 0,
        "2016": 170,
        "2017": 94.118
    },
    "DL Chahar": {
        "2017": 233.333
    },
    "A Zampa": {
        "2016": 0,
        "2017": 71.429
    },
    "AB Dinda": {
        "2008": 50,
        "2009": 66.667,
        "2010": 0,
        "2011": 0,
        "2012": 40,
        "2013": 81.818,
        "2014": 33.333,
        "2017": 100
    },
    "Imran Tahir": {
        "2014": 80,
        "2015": 83.333,
        "2016": 71.429,
        "2017": 0
    },
    "NV Ojha": {
        "2009": 116.667,
        "2010": 133.216,
        "2011": 99.379,
        "2012": 114.35,
        "2013": 90,
        "2014": 145,
        "2015": 114.167,
        "2016": 98.551,
        "2017": 121.538
    },
    "V Shankar": {
        "2017": 134.667
    },
    "Rashid Khan": {
        "2017": 122.222
    },
    "B Kumar": {
        "2011": 100,
        "2012": 100,
        "2013": 73.239,
        "2014": 25,
        "2015": 170,
        "2016": 159.259,
        "2017": 100
    },
    "MP Stoinis": {
        "2016": 135.185,
        "2017": 70.833
    },
    "MM Sharma": {
        "2013": 0,
        "2014": 33.333,
        "2015": 155.556,
        "2016": 123.077,
        "2017": 102
    },
    "VR Aaron": {
        "2011": 0,
        "2012": 33.333,
        "2014": 106.061,
        "2015": 200,
        "2017": 40
    },
    "V Kohli": {
        "2008": 105.096,
        "2009": 112.329,
        "2010": 145.498,
        "2011": 121.351,
        "2012": 112,
        "2013": 140.749,
        "2014": 122.109,
        "2015": 130.829,
        "2016": 152.747,
        "2017": 122.222
    },
    "MJ McClenaghan": {
        "2015": 216.667,
        "2016": 147.826,
        "2017": 106.667
    },
    "Ankit Sharma": {
        "2012": 138.462,
        "2014": 113.333,
        "2015": 116.667,
        "2016": 100,
        "2017": 166.667
    },
    "SN Thakur": {
        "2015": 116.667,
        "2017": 0
    },
    "RD Chahar": {
        "2017": 150
    },
    "LH Ferguson": {
        "2017": 100
    },
    "C de Grandhomme": {
        "2017": 136.957
    },
    "Bipul Sharma": {
        "2010": 128.571,
        "2011": 127.778,
        "2012": 153.191,
        "2015": 50,
        "2016": 204,
        "2017": 129.167
    },
    "SS Iyer": {
        "2015": 128.363,
        "2016": 69.767,
        "2017": 139.669
    },
    "EJG Morgan": {
        "2010": 116.667,
        "2011": 117.094,
        "2013": 127.917,
        "2015": 123.841,
        "2016": 117.143,
        "2017": 104.839
    },
    "KC Cariappa": {
        "2016": 118.182,
        "2017": 28.571
    },
    "Sandeep Sharma": {
        "2013": 0,
        "2014": 40,
        "2015": 64.286,
        "2016": 88.889,
        "2017": 140
    },
    "Ishan Kishan": {
        "2016": 102.439,
        "2017": 135.122
    },
    "JD Unadkat": {
        "2013": 100,
        "2014": 16.667,
        "2017": 40
    },
    "AF Milne": {
        "2017": 58.333
    },
    "S Badree": {
        "2017": 56.522
    },
    "AD Mathews": {
        "2009": 123.077,
        "2010": 127.322,
        "2012": 117.593,
        "2013": 123.741,
        "2015": 139.806,
        "2017": 118.519
    },
    "Mohammed Shami": {
        "2013": 50,
        "2014": 42.857,
        "2016": 50,
        "2017": 150
    },
    "Mohammad Nabi": {
        "2017": 66.667
    },
    "I Sharma": {
        "2008": 100,
        "2009": 123.077,
        "2010": 35.294,
        "2011": 80,
        "2017": 66.667
    },
    "RA Jadeja": {
        "2008": 135,
        "2009": 111.321,
        "2011": 124.67,
        "2012": 126.49,
        "2013": 150,
        "2014": 133.945,
        "2015": 104.762,
        "2016": 109.143,
        "2017": 139.823
    },
    "AJ Tye": {
        "2017": 182.759
    },
    "KS Williamson": {
        "2015": 114.815,
        "2016": 101.639,
        "2017": 152.381
    },
    "SE Marsh": {
        "2008": 140,
        "2010": 128.947,
        "2011": 146.939,
        "2012": 120,
        "2013": 120.482,
        "2014": 134.615,
        "2015": 150,
        "2016": 118.657,
        "2017": 137.5
    },
    "Shakib Al Hasan": {
        "2011": 131.818,
        "2012": 124.658,
        "2014": 149.673,
        "2015": 133.333,
        "2016": 107.547,
        "2017": 100
    },
    "JP Faulkner": {
        "2012": 107.692,
        "2013": 100,
        "2014": 194.624,
        "2015": 133.333,
        "2016": 132.759,
        "2017": 96.429
    },
    "MG Johnson": {
        "2013": 108.333,
        "2014": 112,
        "2015": 86.111,
        "2016": 35.714,
        "2017": 117.647
    },
    "K Rabada": {
        "2017": 85.938
    },
    "AD Nath": {
        "2016": 74.074,
        "2017": 0
    },
    "NM Coulter-Nile": {
        "2013": 150,
        "2015": 111.111,
        "2016": 64.286,
        "2017": 116.667
    },
    "Kuldeep Yadav": {
        "2017": 90.909
    },
    "UT Yadav": {
        "2010": 75,
        "2011": 20,
        "2012": 28.571,
        "2013": 100,
        "2014": 50,
        "2015": 207.143,
        "2016": 180,
        "2017": 76.923
    },
    "Washington Sundar": {
        "2017": 75
    },
    "KV Sharma": {
        "2009": 33.333,
        "2013": 98.837,
        "2014": 144.828,
        "2015": 122.353,
        "2016": 120,
        "2017": 119.512
    },
    "DM Bravo": {
        "2017": 120
    },
    "AR Bawne": {
        "2017": 100
    },
    "SP Jackson": {
        "2017": 122.581
    },
    "MJ Guptill": {
        "2016": 103.636,
        "2017": 151.724
    },
    "Anureet Singh": {
        "2015": 58.065,
        "2017": 125
    },
    "IK Pathan": {
        "2008": 113.913,
        "2009": 124.051,
        "2010": 148.387,
        "2011": 109.489,
        "2012": 139.683,
        "2013": 98.71,
        "2014": 101.852,
        "2016": 84.615,
        "2017": 66.667
    },
    "Ankit Soni": {
        "2017": 77.778
    },
    "JJ Bumrah": {
        "2014": 33.333,
        "2016": 72.727,
        "2017": 133.333
    },
    "SL Malinga": {
        "2009": 0,
        "2010": 100,
        "2011": 88.889,
        "2012": 103.774,
        "2013": 50,
        "2014": 50,
        "2015": 60,
        "2017": 233.333
    },
    "PJ Sangwan": {
        "2008": 40,
        "2009": 60,
        "2010": 71.429,
        "2013": 200,
        "2017": 50
    },
    "S Kaul": {
        "2013": 77.778,
        "2014": 100,
        "2017": 0
    },
    "LMP Simmons": {
        "2014": 135.862,
        "2015": 123.288,
        "2016": 100,
        "2017": 122.321
    },
    "MN Samuels": {
        "2012": 100.813,
        "2013": 44.444,
        "2017": 93.548
    },
    "Swapnil Singh": {
        "2016": 0,
        "2017": 63.158
    },
    "R Tewatia": {
        "2014": 123.077,
        "2017": 172.727
    },
    "MM Patel": {
        "2008": 0,
        "2009": 126.923,
        "2010": 80,
        "2011": 0,
        "2012": 28.571,
        "2017": 0
    },
    "SS Tiwary": {
        "2008": 130,
        "2009": 108.333,
        "2010": 136.482,
        "2011": 100.538,
        "2012": 114.371,
        "2013": 102.83,
        "2015": 139.744,
        "2016": 122.302,
        "2017": 120.93
    },
    "TA Boult": {
        "2017": 62.5
    },
    "CJ Jordan": {
        "2016": 75,
        "2017": 0
    },
    "IR Jaggi": {
        "2011": 75.676,
        "2012": 71.429,
        "2017": 84.615
    },
    "PP Chawla": {
        "2008": 155.172,
        "2009": 86.111,
        "2010": 105.085,
        "2011": 87.273,
        "2012": 120.455,
        "2013": 112.281,
        "2014": 163.158,
        "2015": 114.894,
        "2016": 103.846,
        "2017": 33.333
    },
    "AS Rajpoot": {
        "2013": 33.333,
        "2017": 57.143
    },
    "SC Ganguly": {
        "2008": 114.426,
        "2009": 92.195,
        "2010": 117.943,
        "2011": 86.207,
        "2012": 98.893
    },
    "RT Ponting": {
        "2008": 73.585,
        "2013": 69.333
    },
    "DJ Hussey": {
        "2008": 123.643,
        "2009": 171.93,
        "2010": 110.588,
        "2011": 101.587,
        "2012": 129.836,
        "2013": 112.981,
        "2014": 123.404
    },
    "Mohammad Hafeez": {
        "2008": 77.108
    },
    "R Dravid": {
        "2008": 124.916,
        "2009": 115.812,
        "2010": 128.643,
        "2011": 109.936,
        "2012": 112.136,
        "2013": 111.085
    },
    "W Jaffer": {
        "2008": 110.577,
        "2009": 88.235
    },
    "JH Kallis": {
        "2008": 108.743,
        "2009": 109.063,
        "2010": 116.973,
        "2011": 112.169,
        "2012": 107.068,
        "2013": 96.584,
        "2014": 117.969
    },
    "CL White": {
        "2008": 114,
        "2010": 145.455,
        "2011": 95.413,
        "2012": 150.157,
        "2013": 115.306
    },
    "MV Boucher": {
        "2008": 127.119,
        "2009": 131.579,
        "2010": 130,
        "2011": 100
    },
    "B Akhil": {
        "2008": 148.387,
        "2009": 113.333,
        "2011": 144.444
    },
    "AA Noffke": {
        "2008": 90
    },
    "SB Joshi": {
        "2008": 42.857
    },
    "ML Hayden": {
        "2008": 148.819,
        "2009": 145.547,
        "2010": 124.014
    },
    "MEK Hussey": {
        "2008": 168,
        "2010": 84.091,
        "2011": 119.128,
        "2012": 110.593,
        "2013": 129.735,
        "2014": 114.835,
        "2015": 110
    },
    "JDP Oram": {
        "2008": 150,
        "2009": 95.652,
        "2011": 0
    },
    "S Badrinath": {
        "2008": 147.692,
        "2009": 107.927,
        "2010": 118.272,
        "2011": 126.923,
        "2012": 108.287,
        "2013": 103.333
    },
    "K Goel": {
        "2008": 97.436,
        "2009": 93.233,
        "2010": 90
    },
    "JR Hopes": {
        "2008": 149.324,
        "2011": 124.841
    },
    "KC Sangakkara": {
        "2008": 162.437,
        "2009": 103.106,
        "2010": 139.453,
        "2011": 123.024,
        "2012": 109.29,
        "2013": 88.235
    },
    "SM Katich": {
        "2008": 141.176,
        "2009": 123.932
    },
    "T Kohli": {
        "2008": 66.667,
        "2009": 25
    },
    "M Kaif": {
        "2008": 103.529,
        "2010": 93.333,
        "2011": 124.242,
        "2012": 87.5
    },
    "DS Lehmann": {
        "2008": 100
    },
    "M Rawat": {
        "2008": 87.179,
        "2009": 84.211,
        "2013": 45.455
    },
    "D Salunkhe": {
        "2008": 137.5
    },
    "SK Warne": {
        "2008": 120.69,
        "2009": 93.103,
        "2010": 52.632,
        "2011": 50
    },
    "SK Trivedi": {
        "2008": 41.667,
        "2009": 52.941,
        "2010": 142.857,
        "2011": 0,
        "2012": 83.333,
        "2013": 42.857
    },
    "V Sehwag": {
        "2008": 187.963,
        "2009": 147.761,
        "2010": 164.055,
        "2011": 177.406,
        "2012": 161.238,
        "2013": 128.821,
        "2014": 144.904,
        "2015": 117.857
    },
    "L Ronchi": {
        "2008": 106.25,
        "2009": 0
    },
    "ST Jayasuriya": {
        "2008": 166.883,
        "2009": 116.316,
        "2010": 106.452
    },
    "DJ Thornely": {
        "2008": 73.585
    },
    "PR Shah": {
        "2008": 100,
        "2009": 103.922,
        "2011": 100
    },
    "AM Nayar": {
        "2008": 150.365,
        "2009": 127.815,
        "2010": 113.725,
        "2011": 92.424,
        "2012": 91.837,
        "2013": 90.411,
        "2014": 93.478
    },
    "SM Pollock": {
        "2008": 132.432
    },
    "S Chanderpaul": {
        "2008": 80.645
    },
    "LRPL Taylor": {
        "2008": 183.951,
        "2009": 135.922,
        "2010": 117.333,
        "2011": 120.667,
        "2012": 115.205,
        "2013": 82.895,
        "2014": 100
    },
    "AC Gilchrist": {
        "2008": 138.854,
        "2009": 153.727,
        "2010": 156.216,
        "2011": 131.615,
        "2012": 121.127,
        "2013": 128.384
    },
    "Y Venugopal Rao": {
        "2008": 139.13,
        "2009": 108.772,
        "2010": 79.07,
        "2011": 120.43,
        "2012": 104.762,
        "2014": 112.698
    },
    "VVS Laxman": {
        "2008": 117.424,
        "2009": 57.576,
        "2010": 106.667,
        "2011": 107.317
    },
    "A Symonds": {
        "2008": 154.808,
        "2009": 152.761,
        "2010": 126.176,
        "2011": 97.826
    },
    "SB Styris": {
        "2008": 91.803,
        "2009": 175,
        "2011": 250
    },
    "AS Yadav": {
        "2008": 125.641
    },
    "SB Bangar": {
        "2008": 95.918,
        "2009": 22.222
    },
    "WPUJC Vaas": {
        "2008": 123.529,
        "2009": 142.857,
        "2010": 88.235
    },
    "RP Singh": {
        "2008": 112.5,
        "2009": 47.059,
        "2010": 47.368,
        "2011": 50,
        "2012": 50
    },
    "LR Shukla": {
        "2008": 133.607,
        "2009": 97.647,
        "2010": 138.462,
        "2011": 140,
        "2012": 131.579,
        "2013": 25,
        "2014": 81.579
    },
    "DPMD Jayawardene": {
        "2008": 136.641,
        "2009": 132.727,
        "2010": 148.829,
        "2011": 116.342,
        "2012": 112.416,
        "2013": 106.09
    },
    "S Sohal": {
        "2008": 50,
        "2009": 126.374,
        "2011": 131.053
    },
    "B Lee": {
        "2008": 141.667,
        "2009": 82.353,
        "2010": 122.222,
        "2011": 55.556,
        "2012": 210,
        "2013": 175
    },
    "WA Mota": {
        "2008": 96.296,
        "2009": 62.5
    },
    "Kamran Akmal": {
        "2008": 166.234
    },
    "Shahid Afridi": {
        "2008": 176.087
    },
    "DJ Bravo": {
        "2008": 135.878,
        "2009": 108.458,
        "2010": 115.094,
        "2011": 183.333,
        "2012": 141.603,
        "2013": 114.151,
        "2014": 266.667,
        "2015": 131.757,
        "2016": 120.732
    },
    "MA Khote": {
        "2008": 109.091
    },
    "A Nehra": {
        "2008": 25,
        "2009": 100,
        "2010": 121.053,
        "2012": 91.667,
        "2013": 12.5,
        "2015": 14.286,
        "2016": 100
    },
    "GC Smith": {
        "2008": 122.161,
        "2009": 99.531,
        "2010": 112.821,
        "2011": 82.353
    },
    "Pankaj Singh": {
        "2008": 62.5,
        "2009": 50,
        "2010": 50
    },
    "RR Sarwan": {
        "2008": 97.333
    },
    "S Sreesanth": {
        "2008": 0,
        "2009": 27.778,
        "2010": 128.571,
        "2011": 11.111,
        "2013": 25
    },
    "VRV Singh": {
        "2008": 133.333
    },
    "R Vinay Kumar": {
        "2008": 113.636,
        "2009": 106.818,
        "2010": 84.375,
        "2011": 106.383,
        "2012": 109.677,
        "2013": 159.091,
        "2014": 66.667,
        "2015": 0,
        "2016": 108.333
    },
    "AB Agarkar": {
        "2008": 120,
        "2009": 115.789,
        "2010": 142.857,
        "2011": 140,
        "2013": 75
    },
    "M Kartik": {
        "2008": 111.111,
        "2009": 105,
        "2010": 100,
        "2011": 85.714,
        "2012": 123.81,
        "2013": 66.667
    },
    "Shoaib Malik": {
        "2008": 113.043
    },
    "MF Maharoof": {
        "2008": 158.228,
        "2009": 100,
        "2010": 134.783
    },
    "VY Mahesh": {
        "2008": 55.556
    },
    "TM Srivastava": {
        "2008": 80,
        "2009": 0
    },
    "B Chipli": {
        "2008": 71.429,
        "2011": 121.765,
        "2012": 105.714,
        "2013": 94.118
    },
    "DW Steyn": {
        "2008": 40,
        "2009": 0,
        "2010": 76.471,
        "2011": 102.857,
        "2012": 90.476,
        "2013": 147.222,
        "2014": 84.615,
        "2015": 153.846,
        "2016": 50
    },
    "DB Das": {
        "2008": 109.574,
        "2012": 136.957,
        "2013": 101.351
    },
    "HH Gibbs": {
        "2008": 109.15,
        "2009": 112.424,
        "2010": 114.103,
        "2012": 92.045
    },
    "DNT Zoysa": {
        "2008": 122.222
    },
    "D Kalyankrishna": {
        "2008": 37.5
    },
    "SA Asnodkar": {
        "2008": 134.632,
        "2009": 105.376,
        "2010": 125,
        "2011": 100
    },
    "Sohail Tanvir": {
        "2008": 128.571
    },
    "Salman Butt": {
        "2008": 120.625
    },
    "BJ Hodge": {
        "2008": 70.588,
        "2009": 118.123,
        "2010": 110,
        "2011": 121.795,
        "2012": 141.618,
        "2013": 135.023,
        "2014": 140.278
    },
    "Umar Gul": {
        "2008": 205.263
    },
    "SP Fleming": {
        "2008": 120.988
    },
    "S Vidyut": {
        "2008": 133.028
    },
    "JA Morkel": {
        "2008": 148.765,
        "2009": 138.571,
        "2010": 151.908,
        "2011": 138,
        "2012": 157.353,
        "2013": 124.324,
        "2014": 109.756,
        "2015": 132.308,
        "2016": 177.778
    },
    "LPC Silva": {
        "2008": 153.846
    },
    "DB Ravi Teja": {
        "2008": 134.568,
        "2009": 92.857,
        "2011": 127.972,
        "2012": 100,
        "2013": 82.353
    },
    "Misbah-ul-Haq": {
        "2008": 144.444
    },
    "YV Takawale": {
        "2008": 109.375,
        "2009": 81.818,
        "2014": 114.286
    },
    "RR Raje": {
        "2008": 88.889,
        "2009": 133.333
    },
    "Mohammad Asif": {
        "2008": 50
    },
    "GD McGrath": {
        "2008": 80
    },
    "Joginder Sharma": {
        "2008": 145.455,
        "2009": 111.111,
        "2011": 0
    },
    "MS Gony": {
        "2008": 159.091,
        "2009": 185.714,
        "2010": 33.333,
        "2011": 0,
        "2012": 50,
        "2013": 180
    },
    "M Muralitharan": {
        "2008": 0,
        "2009": 100,
        "2010": 50,
        "2011": 71.429,
        "2012": 66.667
    },
    "M Ntini": {
        "2008": 61.111
    },
    "DT Patil": {
        "2008": 100
    },
    "A Kumble": {
        "2008": 76.471,
        "2009": 84.211,
        "2010": 54.545
    },
    "S Anirudha": {
        "2008": 14.286,
        "2010": 166.667,
        "2011": 112.162,
        "2012": 316.667,
        "2013": 0,
        "2014": 60
    },
    "CK Kapugedera": {
        "2008": 72.727
    },
    "A Chopra": {
        "2008": 80.769,
        "2009": 57.895
    },
    "T Taibu": {
        "2008": 119.231
    },
    "J Arunkumar": {
        "2008": 100
    },
    "PP Ojha": {
        "2008": 50,
        "2009": 14.286,
        "2010": 37.5,
        "2012": 30.769,
        "2013": 50,
        "2014": 50
    },
    "SP Goswami": {
        "2008": 96.471,
        "2009": 88.333,
        "2010": 80,
        "2011": 100,
        "2012": 102.985
    },
    "SR Tendulkar": {
        "2008": 106.215,
        "2009": 121.739,
        "2010": 133.477,
        "2011": 113.32,
        "2012": 114.488,
        "2013": 124.242
    },
    "U Kaul": {
        "2008": 0
    },
    "TM Dilshan": {
        "2008": 133.333,
        "2009": 123.304,
        "2010": 83.019,
        "2011": 125.556,
        "2012": 110.039,
        "2013": 82.609
    },
    "AD Mascarenhas": {
        "2008": 112.5,
        "2009": 100,
        "2010": 120,
        "2012": 87.5,
        "2013": 100
    },
    "Niraj Patel": {
        "2008": 127.16,
        "2009": 47.368
    },
    "LA Pomersbach": {
        "2008": 153.535,
        "2009": 89.13,
        "2011": 130.769,
        "2013": 98.305
    },
    "Younis Khan": {
        "2008": 42.857
    },
    "PM Sarvesh Kumar": {
        "2008": 50
    },
    "DP Vijaykumar": {
        "2008": 100
    },
    "Shoaib Akhtar": {
        "2008": 28.571
    },
    "Abdur Razzak": {
        "2008": 0
    },
    "H Das": {
        "2008": 40
    },
    "SD Chitnis": {
        "2008": 200,
        "2009": 75,
        "2011": 100,
        "2012": 106.452
    },
    "CRD Fernando": {
        "2008": 200,
        "2010": 100
    },
    "VS Yeligati": {
        "2008": 100
    },
    "L Balaji": {
        "2008": 0,
        "2009": 40,
        "2010": 90,
        "2011": 200,
        "2013": 90,
        "2014": 33.333
    },
    "A Mukund": {
        "2008": 0,
        "2013": 90.476
    },
    "RR Powar": {
        "2008": 133.333,
        "2009": 104.545,
        "2010": 62.5,
        "2011": 84.615
    },
    "JP Duminy": {
        "2009": 114.462,
        "2010": 119.847,
        "2011": 118.497,
        "2012": 128.421,
        "2014": 135.762,
        "2015": 131.429,
        "2016": 123.226
    },
    "A Flintoff": {
        "2009": 116.981
    },
    "T Thushara": {
        "2009": 28.571,
        "2010": 90.909
    },
    "JD Ryder": {
        "2009": 116.667,
        "2011": 148.98,
        "2012": 121.327
    },
    "KP Pietersen": {
        "2009": 110.714,
        "2010": 150.318,
        "2012": 147.343,
        "2014": 126.18,
        "2016": 119.672
    },
    "T Henderson": {
        "2009": 73.333
    },
    "Kamran Khan": {
        "2009": 60
    },
    "RS Bopara": {
        "2009": 115.966,
        "2010": 115.888,
        "2015": 120.833
    },
    "R Bishnoi": {
        "2009": 111.765
    },
    "FH Edwards": {
        "2009": 80
    },
    "PC Valthaty": {
        "2009": 50,
        "2011": 138.623,
        "2012": 58.824,
        "2013": 35.294
    },
    "RJ Quiney": {
        "2009": 100.98
    },
    "AS Raut": {
        "2009": 127.869,
        "2010": 116.667,
        "2011": 103.448
    },
    "Yashpal Singh": {
        "2009": 72.308
    },
    "M Manhas": {
        "2009": 120.968,
        "2010": 105.369,
        "2011": 92.683,
        "2012": 125,
        "2013": 76.471,
        "2014": 152.174
    },
    "AA Bilakhia": {
        "2009": 83.75,
        "2010": 50
    },
    "AN Ghosh": {
        "2009": 87.5
    },
    "BAW Mendis": {
        "2009": 0,
        "2010": 100,
        "2013": 50
    },
    "DL Vettori": {
        "2009": 109.677,
        "2010": 122.222,
        "2011": 82.143,
        "2012": 119.231
    },
    "MN van Wyk": {
        "2009": 127.481
    },
    "RE van der Merwe": {
        "2009": 124.49,
        "2010": 50,
        "2011": 87.5,
        "2013": 88
    },
    "TL Suman": {
        "2009": 124.737,
        "2010": 120.392,
        "2011": 127.451,
        "2012": 78.947,
        "2013": 89.655
    },
    "Shoaib Ahmed": {
        "2009": 16.667
    },
    "GR Napier": {
        "2009": 93.75
    },
    "KP Appanna": {
        "2009": 0,
        "2010": 66.667
    },
    "LA Carseldine": {
        "2009": 122.727
    },
    "SM Harwood": {
        "2009": 69.231
    },
    "M Vijay": {
        "2009": 89.552,
        "2010": 156.849,
        "2011": 128.024,
        "2012": 126.792,
        "2013": 109.091,
        "2014": 107.813,
        "2015": 110.088,
        "2016": 124.451
    },
    "SB Jakati": {
        "2009": 133.333,
        "2012": 58.333,
        "2016": 50
    },
    "RJ Harris": {
        "2009": 116.667,
        "2010": 115.385,
        "2011": 81.579,
        "2012": 163.636,
        "2013": 40
    },
    "D du Preez": {
        "2009": 76.923
    },
    "M Morkel": {
        "2009": 100,
        "2010": 56.25,
        "2011": 166.667,
        "2012": 60,
        "2013": 196.552,
        "2014": 133.333,
        "2015": 133.333,
        "2016": 100
    },
    "J Botha": {
        "2009": 120.513,
        "2011": 116.162,
        "2012": 107.407,
        "2013": 82.692,
        "2015": 206.667
    },
    "C Nanda": {
        "2009": 0
    },
    "Mashrafe Mortaza": {
        "2009": 100
    },
    "A Singh": {
        "2009": 33.333,
        "2011": 25,
        "2012": 0
    },
    "GJ Bailey": {
        "2009": 115.385,
        "2010": 66.667,
        "2014": 136.702,
        "2015": 136.316,
        "2016": 86.598
    },
    "AB McDonald": {
        "2009": 75,
        "2010": 125,
        "2011": 114.286,
        "2012": 134.286,
        "2013": 0
    },
    "Y Nagar": {
        "2009": 100,
        "2010": 16.667,
        "2011": 111,
        "2012": 115.038
    },
    "SS Shaikh": {
        "2009": 85.714
    },
    "R Ashwin": {
        "2009": 53.333,
        "2010": 75,
        "2011": 33.333,
        "2012": 120,
        "2013": 71.429,
        "2014": 100,
        "2015": 162.5,
        "2016": 107.895
    },
    "Mohammad Ashraful": {
        "2009": 20
    },
    "CA Pujara": {
        "2010": 106.087,
        "2011": 109.677,
        "2012": 77.273,
        "2013": 92.929,
        "2014": 101.626
    },
    "OA Shah": {
        "2010": 121.053,
        "2011": 173.333,
        "2012": 133.333,
        "2013": 108.696
    },
    "Anirudh Singh": {
        "2010": 95.455
    },
    "Jaskaran Singh": {
        "2010": 72.727
    },
    "R Sathish": {
        "2010": 116.667,
        "2011": 73.529,
        "2013": 143.421,
        "2016": 100
    },
    "R McLaren": {
        "2010": 95.652,
        "2011": 93.75,
        "2013": 50
    },
    "AA Jhunjhunwala": {
        "2010": 110.241,
        "2011": 58.824,
        "2012": 92.308
    },
    "P Dogra": {
        "2010": 100.943,
        "2012": 62.5,
        "2013": 62.5
    },
    "A Uniyal": {
        "2010": 57.143
    },
    "MS Bisla": {
        "2010": 123.164,
        "2011": 80.899,
        "2012": 133.125,
        "2013": 108.511,
        "2014": 33.333,
        "2015": 123.333
    },
    "YA Abdulla": {
        "2010": 0
    },
    "JM Kemp": {
        "2010": 108.333
    },
    "S Tyagi": {
        "2010": 75
    },
    "RS Gavaskar": {
        "2010": 25
    },
    "SE Bond": {
        "2010": 50
    },
    "S Ladda": {
        "2010": 0
    },
    "DP Nannes": {
        "2010": 30.769
    },
    "MJ Lumb": {
        "2010": 147.09,
        "2011": 0
    },
    "DR Martyn": {
        "2010": 79.167
    },
    "S Narwal": {
        "2010": 116.667,
        "2013": 153.333
    },
    "AB Barath": {
        "2010": 100
    },
    "FY Fazal": {
        "2010": 107.19,
        "2011": 100
    },
    "AC Voges": {
        "2010": 126.573
    },
    "MD Mishra": {
        "2010": 116.901,
        "2011": 111.667,
        "2012": 100
    },
    "J Theron": {
        "2010": 40,
        "2012": 116.667,
        "2015": 100
    },
    "SJ Srivastava": {
        "2010": 50,
        "2011": 133.333
    },
    "R Sharma": {
        "2010": 111.538,
        "2011": 114.286,
        "2012": 18.182,
        "2013": 64.706
    },
    "SW Tait": {
        "2010": 92.308,
        "2011": 100,
        "2013": 33.333
    },
    "KB Arun Karthik": {
        "2010": 60,
        "2011": 87.5,
        "2013": 107.895
    },
    "KAJ Roach": {
        "2010": 111.111
    },
    "PD Collingwood": {
        "2010": 130.128
    },
    "CK Langeveldt": {
        "2010": 0,
        "2011": 100
    },
    "VS Malik": {
        "2010": 120,
        "2014": 50
    },
    "A Mithun": {
        "2010": 125,
        "2011": 135,
        "2013": 100
    },
    "AP Dole": {
        "2010": 154.545
    },
    "AN Ahmed": {
        "2010": 57.143,
        "2011": 138.462,
        "2014": 400,
        "2015": 200
    },
    "RS Sodhi": {
        "2010": 200
    },
    "DE Bollinger": {
        "2010": 112.5,
        "2011": 0,
        "2012": 60
    },
    "S Sriram": {
        "2010": 93.103,
        "2011": 57.143
    },
    "B Sumanth": {
        "2010": 94.595
    },
    "C Madan": {
        "2010": 83.333
    },
    "AG Paunikar": {
        "2010": 0,
        "2011": 90.741
    },
    "MR Marsh": {
        "2010": 93.333,
        "2011": 102.041,
        "2013": 132.075,
        "2016": 63.636
    },
    "Harmeet Singh": {
        "2010": 0,
        "2012": 214.286,
        "2013": 75
    },
    "RV Gomez": {
        "2011": 92,
        "2013": 400
    },
    "AUK Pathan": {
        "2011": 206.25,
        "2012": 85.714
    },
    "UBT Chand": {
        "2011": 16.667,
        "2012": 105.882,
        "2013": 100.637,
        "2014": 22.222,
        "2015": 122.892,
        "2016": 0
    },
    "DJ Jacobs": {
        "2011": 104.545,
        "2012": 0
    },
    "Sunny Singh": {
        "2011": 138.71
    },
    "NJ Rimmington": {
        "2011": 100
    },
    "AL Menaria": {
        "2011": 118.421,
        "2012": 110,
        "2013": 50
    },
    "WD Parnell": {
        "2011": 94.872,
        "2012": 70.37,
        "2013": 71.429,
        "2014": 100
    },
    "JJ van der Wath": {
        "2011": 112.5
    },
    "R Ninan": {
        "2011": 60
    },
    "MS Wade": {
        "2011": 66.667
    },
    "TD Paine": {
        "2011": 38.462
    },
    "SB Wagh": {
        "2011": 66.667
    },
    "AC Thomas": {
        "2011": 25,
        "2012": 126.667
    },
    "JEC Franklin": {
        "2011": 137.179,
        "2012": 99.099
    },
    "DH Yagnik": {
        "2011": 76.19,
        "2012": 192.308,
        "2013": 134.409,
        "2014": 66.667
    },
    "S Randiv": {
        "2011": 50
    },
    "BJ Haddin": {
        "2011": 163.636
    },
    "NLTC Perera": {
        "2011": 85.185,
        "2012": 44.444,
        "2013": 144.172,
        "2015": 80,
        "2016": 163.043
    },
    "NL McCullum": {
        "2011": 118.182
    },
    "JE Taylor": {
        "2011": 100
    },
    "J Syed Mohammad": {
        "2011": 125,
        "2012": 400,
        "2013": 76.923
    },
    "RN ten Doeschate": {
        "2011": 146.575,
        "2012": 100,
        "2013": 134.921,
        "2014": 157.576,
        "2015": 135.556
    },
    "TR Birt": {
        "2011": 131.579
    },
    "AG Murtaza": {
        "2011": 40,
        "2012": 60,
        "2013": 125
    },
    "Harpreet Singh": {
        "2011": 70,
        "2012": 100
    },
    "M Klinger": {
        "2011": 97.333
    },
    "AC Blizzard": {
        "2011": 137.931,
        "2012": 0
    },
    "I Malhotra": {
        "2011": 175
    },
    "L Ablish": {
        "2011": 0
    },
    "CA Ingram": {
        "2011": 84
    },
    "P Parameswaran": {
        "2011": 100,
        "2012": 0
    },
    "CJ Ferguson": {
        "2011": 88.889,
        "2012": 79.365
    },
    "AA Chavan": {
        "2011": 33.333,
        "2012": 137.5
    },
    "ND Doshi": {
        "2011": 0
    },
    "Y Gnaneswara Rao": {
        "2011": 111.765
    },
    "S Rana": {
        "2011": 120,
        "2014": 114.063
    },
    "BA Bhatt": {
        "2011": 0,
        "2012": 300
    },
    "RE Levi": {
        "2012": 113.699
    },
    "KK Cooper": {
        "2012": 200,
        "2013": 177.273,
        "2014": 150
    },
    "HV Patel": {
        "2012": 100,
        "2014": 185.714,
        "2015": 158.333
    },
    "DAJ Bracewell": {
        "2012": 133.333
    },
    "DJ Harris": {
        "2012": 109.901
    },
    "GB Hogg": {
        "2012": 93.75,
        "2015": 116.667
    },
    "RR Bhatkal": {
        "2012": 0
    },
    "CJ McKay": {
        "2012": 53.333
    },
    "N Saini": {
        "2012": 100
    },
    "Azhar Mahmood": {
        "2012": 130.986,
        "2013": 127.273,
        "2015": 85.714
    },
    "RJ Peterson": {
        "2012": 106.667
    },
    "KMDN Kulasekara": {
        "2012": 166.667
    },
    "A Ashish Reddy": {
        "2012": 120.69,
        "2013": 140.449,
        "2015": 158.696,
        "2016": 162.069
    },
    "V Pratap Singh": {
        "2012": 0
    },
    "BB Samantray": {
        "2012": 100,
        "2013": 110.811
    },
    "MJ Clarke": {
        "2012": 104.255
    },
    "Gurkeerat Singh": {
        "2012": 165.385,
        "2013": 113.684,
        "2015": 89.744,
        "2016": 131.395
    },
    "AP Majumdar": {
        "2012": 114.474
    },
    "PA Reddy": {
        "2012": 123.729,
        "2013": 90.099
    },
    "K Upadhyay": {
        "2012": 137.5,
        "2013": 100
    },
    "P Awana": {
        "2012": 80,
        "2013": 11.111
    },
    "AD Russell": {
        "2012": 180.769,
        "2013": 78.571,
        "2014": 25,
        "2015": 192.899,
        "2016": 164.912
    },
    "A Chandila": {
        "2012": 0,
        "2013": 66.667
    },
    "Sunny Gupta": {
        "2012": 0
    },
    "MC Juneja": {
        "2013": 97.656
    },
    "GH Vihari": {
        "2013": 87.004,
        "2015": 114.706
    },
    "MDKJ Perera": {
        "2013": 107.692
    },
    "R Shukla": {
        "2013": 50,
        "2014": 85.714
    },
    "B Laughlin": {
        "2013": 44.444
    },
    "BMAJ Mendis": {
        "2013": 85.185
    },
    "R Rampaul": {
        "2013": 105.556,
        "2014": 100
    },
    "SMSM Senanayake": {
        "2013": 62.5
    },
    "BJ Rohrer": {
        "2013": 136.879
    },
    "KL Rahul": {
        "2013": 125,
        "2014": 101.22,
        "2015": 114.516,
        "2016": 146.494
    },
    "Q de Kock": {
        "2013": 40,
        "2014": 117.692,
        "2015": 158.442,
        "2016": 136.503
    },
    "R Dhawan": {
        "2013": 100,
        "2014": 109.333,
        "2015": 109.091,
        "2016": 233.333
    },
    "LJ Wright": {
        "2013": 179.661
    },
    "IC Pandey": {
        "2013": 0
    },
    "CM Gautam": {
        "2013": 129.412,
        "2014": 110,
        "2015": 80
    },
    "X Thalaivan Sargunam": {
        "2013": 58.824
    },
    "DJG Sammy": {
        "2013": 131.818,
        "2014": 118.681,
        "2015": 72.222
    },
    "KW Richardson": {
        "2013": 94.444,
        "2014": 50,
        "2016": 100
    },
    "UA Birla": {
        "2013": 50
    },
    "Parvez Rasool": {
        "2013": 55.556,
        "2015": 100,
        "2016": 111.111
    },
    "PV Tambe": {
        "2013": 50,
        "2014": 55.556,
        "2015": 60,
        "2016": 38.889
    },
    "NJ Maddinson": {
        "2014": 114.286,
        "2015": 57.143
    },
    "JDS Neesham": {
        "2014": 91.304
    },
    "MA Starc": {
        "2014": 101.19,
        "2015": 78.571
    },
    "BR Dunk": {
        "2014": 114.286
    },
    "RR Rossouw": {
        "2014": 95.122,
        "2015": 140
    },
    "Shivam Sharma": {
        "2014": 166.667
    },
    "VH Zol": {
        "2014": 111.538
    },
    "BE Hendricks": {
        "2014": 0,
        "2015": 50
    },
    "S Gopal": {
        "2014": 110,
        "2015": 100,
        "2016": 12.5
    },
    "M de Lange": {
        "2014": 50
    },
    "JO Holder": {
        "2014": 133.333,
        "2016": 115.789
    },
    "Karanveer Singh": {
        "2014": 100,
        "2015": 68.75
    },
    "SA Abbott": {
        "2015": 115.385
    },
    "J Suchith": {
        "2015": 150
    },
    "RG More": {
        "2015": 100
    },
    "D Wiese": {
        "2015": 143.529,
        "2016": 125
    },
    "SN Khan": {
        "2015": 158.571,
        "2016": 212.903
    },
    "DJ Muthuswami": {
        "2015": 33.333
    },
    "C Munro": {
        "2016": 100
    },
    "P Sahu": {
        "2016": 146.154
    },
    "KJ Abbott": {
        "2016": 162.5
    },
    "M Ashwin": {
        "2016": 0
    },
    "NS Naik": {
        "2016": 74.194
    },
    "PSP Handscomb": {
        "2016": 50
    },
    "J Yadav": {
        "2016": 60
    },
    "UT Khawaja": {
        "2016": 128.283
    },
    "F Behardien": {
        "2016": 107.692
    },
    "BB Sran": {
        "2016": 133.333
    },
    "S Kaushik": {
        "2016": 0
    },
    "ER Dwivedi": {
        "2016": 171.429
    }
}